%YAML 1.1
%TAG !u! tag:unity3d.com,2011:
--- !u!114 &11400000
MonoBehaviour:
  m_ObjectHideFlags: 0
  m_PrefabParentObject: {fileID: 0}
  m_PrefabInternal: {fileID: 0}
  m_GameObject: {fileID: 0}
  m_Enabled: 1
  m_EditorHideFlags: 0
  m_Script: {fileID: 11500000, guid: d6e7d2d9d4c417d4bad1e8c6ece2b98b, type: 3}
  m_Name: ZombieSweats
  m_EditorClassIdentifier: 
  diseaseName: Zombie Sweats
  symptoms: 01000000090000000a000000
  lifeTimer: 150
  Cure1Ingredient1: 1
  Cure1Ingredient1Amount: 2
  Cure1Ingredient2: 0
  Cure1Ingredient2Amount: 2
  Cure1Ingredient3: 9
  Cure1Ingredient3Amount: 2
  Cure1AdministrationLocations: 0000000003000000
  Cure1Allergies: 010000000000000009000000
  Cure2Ingredient1: 6
  Cure2Ingredient1Amount: 1
  Cure2Ingredient2: 8
  Cure2Ingredient2Amount: 1
  Cure2Ingredient3: 9
  Cure2Ingredient3Amount: 2
  Cure2Allergies: 060000000800000009000000
  Cure2AdministrationLocations: 0000000003000000
