# This file uses centimeters as units for non-parametric coordinates.

mtllib b8.mtl
g default
v 4.448545 -1.363195 -2.770332
v 3.634806 -1.363195 -4.367363
v 2.367384 -1.363195 -5.634804
v 0.770338 -1.363195 -6.448586
v -1.000002 -1.363195 -6.728951
v -2.770346 -1.363195 -6.448586
v -4.367384 -1.363195 -5.634804
v -5.634809 -1.363195 -4.367363
v -6.448549 -1.363195 -2.770332
v -6.728933 -1.363195 -1.000038
v -6.448549 -1.363195 0.770332
v -5.634809 -1.363195 2.367348
v -4.367384 -1.363195 3.634789
v -2.770342 -1.363195 4.448509
v -1.000002 -1.363195 4.728951
v 0.770338 -1.363195 4.448509
v 2.367384 -1.363195 3.634789
v 3.634806 -1.363195 2.367348
v 4.448534 -1.363195 0.770332
v 4.728933 -1.363195 -1.000038
v -1.000002 -1.363195 -1.000038
v 3.962252 5.147166 -2.612297
v 3.221155 5.147166 -4.066826
v -1.000002 5.147181 -1.000038
v 2.066835 5.147166 -5.221169
v 0.612337 5.147166 -5.962288
v -1.000002 5.147166 -6.217644
v -2.612341 5.147166 -5.962364
v -4.066851 5.147166 -5.221321
v -5.221144 5.147166 -4.066963
v -5.962255 5.147166 -2.612144
v -6.217627 5.147166 -1.000038
v -5.962255 5.147166 0.612144
v -5.221148 5.147166 2.066811
v -4.066851 5.147166 3.221092
v -2.612341 5.147166 3.962212
v -1.000002 5.147166 4.217644
v 0.612337 5.147166 3.962273
v 2.066835 5.147166 3.221092
v 3.221144 5.147166 2.066811
v 3.962252 5.147166 0.612450
v 4.217623 5.147166 -0.999886
v 4.448545 26.102763 -2.770332
v 4.302679 26.254237 -2.722923
v 3.634806 26.102763 -4.367363
v 3.510729 26.254237 -4.277214
v 2.367384 26.102763 -5.634804
v 2.277243 26.254237 -5.510704
v 0.770338 26.102763 -6.448586
v 0.722948 26.254237 -6.302711
v -1.000002 26.102763 -6.728951
v -1.000002 26.254237 -6.575600
v -2.770346 26.102763 -6.448586
v -2.722956 26.254237 -6.302711
v -4.367384 26.102763 -5.634804
v -4.277235 26.254237 -5.510704
v -5.634809 26.102763 -4.367363
v -5.510733 26.254237 -4.277214
v -6.448549 26.102763 -2.770332
v -6.302683 26.254237 -2.722923
v -6.728933 26.102763 -1.000038
v -6.575571 26.254237 -1.000038
v -6.448549 26.102763 0.770332
v -6.302683 26.254237 0.722923
v -5.634809 26.102763 2.367348
v -5.510733 26.254237 2.277199
v -4.367384 26.102763 3.634789
v -4.277235 26.254237 3.510704
v -2.770342 26.102763 4.448509
v -2.722944 26.254237 4.302620
v -1.000002 26.102763 4.728951
v -1.000002 26.254237 4.575600
v 0.770338 26.102763 4.448509
v 0.722948 26.254237 4.302620
v 2.367384 26.102763 3.634789
v 2.277243 26.254237 3.510704
v 3.634806 26.102763 2.367348
v 3.510729 26.254237 2.277199
v 4.448534 26.102763 0.770332
v 4.302679 26.254237 0.722923
v 4.728933 26.102763 -1.000038
v 4.575567 26.254237 -1.000038
v 3.962252 26.112880 -2.612297
v 4.098375 26.254237 -2.656563
v 3.221155 26.112880 -4.066826
v 3.336939 26.254237 -4.150963
v 2.066835 26.112880 -5.221169
v 2.150969 26.254237 -5.336952
v 0.612337 26.112880 -5.962288
v 0.656565 26.254237 -6.098396
v -1.000002 26.112880 -6.217644
v -1.000002 26.254237 -6.360817
v -2.612341 26.112880 -5.962288
v -2.656569 26.254237 -6.098396
v -4.066851 26.112880 -5.221169
v -4.150984 26.254237 -5.336952
v -5.221144 26.112880 -4.066826
v -5.336943 26.254237 -4.150963
v -5.962255 26.112880 -2.612297
v -6.098375 26.254237 -2.656563
v -6.217627 26.112880 -1.000038
v -6.360750 26.254237 -1.000038
v -5.962255 26.112880 0.612297
v -6.098375 26.254237 0.656487
v -5.221148 26.112880 2.066811
v -5.336943 26.254237 2.150948
v -4.066851 26.112880 3.221092
v -4.150972 26.254237 3.336876
v -2.612341 26.112880 3.962212
v -2.656569 26.254237 4.098320
v -1.000002 26.112880 4.217644
v -1.000002 26.254237 4.360741
v 0.612337 26.112880 3.962273
v 0.656565 26.254237 4.098381
v 2.066835 26.112880 3.221092
v 2.150969 26.254237 3.336876
v 3.221144 26.112880 2.066811
v 3.336939 26.254237 2.150948
v 3.962252 26.112880 0.612297
v 4.098375 26.254237 0.656487
v 4.217623 26.112880 -1.000038
v 4.360746 26.254237 -1.000038
v 3.634806 23.421946 -4.367363
v 4.448545 23.421946 -2.770332
v 2.367384 23.421946 -5.634804
v 0.770338 23.421946 -6.448586
v -1.000002 23.421946 -6.728951
v -2.770346 23.421946 -6.448586
v -4.367384 23.421946 -5.634804
v -5.634809 23.421946 -4.367363
v -6.448549 23.421946 -2.770332
v -6.728933 23.421946 -1.000038
v -6.448549 23.421946 0.770332
v -5.634809 23.421946 2.367348
v -4.367384 23.421946 3.634789
v -2.770342 23.421946 4.448540
v -1.000002 23.421946 4.728951
v 0.770338 23.421946 4.448540
v 2.367384 23.421946 3.634789
v 3.634806 23.421946 2.367348
v 4.448534 23.421946 0.770332
v 4.728933 23.421946 -1.000038
v 3.221155 23.421946 -4.066826
v 3.962252 23.421946 -2.612297
v 2.066835 23.421946 -5.221169
v 0.612337 23.421946 -5.962288
v -1.000002 23.421946 -6.217644
v -2.612341 23.421946 -5.962303
v -4.066851 23.421946 -5.221184
v -5.221144 23.421946 -4.066826
v -5.962255 23.421946 -2.612282
v -6.217627 23.421946 -1.000038
v -5.962255 23.421946 0.612282
v -5.221148 23.421946 2.066811
v -4.066851 23.421946 3.221092
v -2.612341 23.421946 3.962212
v -1.000002 23.421946 4.217644
v 0.612337 23.421946 3.962257
v 2.066835 23.421946 3.221092
v 3.221140 23.421946 2.066811
v 3.962252 23.421946 0.612328
v 4.217623 23.421946 -1.000008
v 3.634806 7.159098 -4.367363
v 2.367384 7.159098 -5.634804
v 0.770330 7.159098 -6.448586
v -1.000002 7.159098 -6.728951
v -2.770346 7.159098 -6.448586
v -4.367384 7.159098 -5.634804
v -5.634809 7.159098 -4.367363
v -6.448549 7.159098 -2.770332
v -6.728933 7.159098 -1.000038
v -6.448549 7.159098 0.770332
v -5.634809 7.159098 2.367348
v -4.367384 7.159098 3.634789
v -2.770342 7.159098 4.448540
v -1.000002 7.159098 4.728951
v 0.770330 7.159098 4.448540
v 2.367384 7.159098 3.634789
v 3.634806 7.159098 2.367348
v 4.448534 7.159098 0.770332
v 4.728933 7.159098 -1.000038
v 3.962252 7.159098 -2.612282
v 4.448538 7.159098 -2.770332
v 3.221155 7.159098 -4.066826
v 2.066835 7.159098 -5.221169
v 0.612337 7.159098 -5.962288
v -1.000002 7.159098 -6.217644
v -2.612341 7.159098 -5.962349
v -4.066851 7.159098 -5.221291
v -5.221144 7.159098 -4.066933
v -5.962255 7.159098 -2.612144
v -6.217627 7.159098 -1.000038
v -5.962255 7.159098 0.612175
v -5.221148 7.159098 2.066811
v -4.066851 7.159098 3.221092
v -2.612341 7.159098 3.962212
v -1.000002 7.159098 4.217644
v 0.612337 7.159098 3.962273
v 2.066835 7.159098 3.221092
v 3.221144 7.159098 2.066811
v 3.962252 7.159098 0.612450
v 4.217623 7.159098 -0.999886
vt 0.961238 0.524044
vt 0.965760 0.524044
vt 0.965760 0.548175
vt 0.829531 0.477146
vt 0.969349 0.524044
vt 0.969349 0.548175
vt 0.875581 0.472640
vt 0.914756 0.558345
vt 0.956225 0.524044
vt 0.956225 0.548175
vt 0.875582 0.469052
vt 0.919278 0.565936
vt 0.914756 0.565936
vt 0.875578 0.482175
vt 0.951212 0.524044
vt 0.951212 0.548175
vt 0.922867 0.565936
vt 0.914622 0.566365
vt 0.919023 0.566365
vt 0.909743 0.565937
vt 0.875576 0.487188
vt 0.946690 0.524044
vt 0.946690 0.548175
vt 0.909743 0.566365
vt 0.904730 0.565937
vt 0.875574 0.491710
vt 0.943101 0.524044
vt 0.943101 0.548175
vt 0.904865 0.566366
vt 0.900208 0.565937
vt 0.896619 0.558346
vt 0.900464 0.566366
vt 0.896620 0.565937
vt 0.901373 0.524044
vt 0.905895 0.524044
vt 0.905895 0.548175
vt 0.901373 0.548175
vt 0.910908 0.524044
vt 0.910908 0.548175
vt 0.875560 0.532505
vt 0.875558 0.537027
vt 0.897785 0.524044
vt 0.897785 0.548175
vt 0.915921 0.524044
vt 0.915921 0.548175
vt 0.875561 0.527492
vt 0.950047 0.565936
vt 0.945525 0.565936
vt 0.941936 0.558345
vt 0.920443 0.524044
vt 0.920443 0.548175
vt 0.875563 0.522479
vt 0.955060 0.565936
vt 0.945780 0.566365
vt 0.950181 0.566365
vt 0.941936 0.565936
vt 0.924032 0.524044
vt 0.924032 0.548175
vt 0.875565 0.517957
vt 0.960073 0.565936
vt 0.955060 0.566365
vt 0.875566 0.514368
vt 0.964595 0.565936
vt 0.959938 0.566365
vt 0.968183 0.565936
vt 0.964339 0.566365
vt 0.893025 0.557146
vt 0.888907 0.557146
vt 0.888907 0.549527
vt 0.947824 0.522550
vt 0.892900 0.557546
vt 0.888668 0.557546
vt 0.885638 0.557146
vt 0.885638 0.549527
vt 0.943706 0.476501
vt 0.906336 0.474304
vt 0.897590 0.557146
vt 0.897591 0.549527
vt 0.897590 0.557547
vt 0.940438 0.476501
vt 0.902217 0.468607
vt 0.906336 0.468607
vt 0.952390 0.476501
vt 0.902156 0.557147
vt 0.902156 0.549527
vt 0.902281 0.557547
vt 0.898949 0.468607
vt 0.910901 0.468607
vt 0.956956 0.476501
vt 0.906274 0.557147
vt 0.906274 0.549527
vt 0.906512 0.557547
vt 0.915467 0.468607
vt 0.961074 0.476501
vt 0.909543 0.557147
vt 0.909543 0.549527
vt 0.919585 0.468607
vt 0.964342 0.476501
vt 0.922853 0.468607
vt 0.947546 0.557147
vt 0.943428 0.557147
vt 0.943428 0.549528
vt 0.947546 0.549528
vt 0.947785 0.557547
vt 0.943553 0.557547
vt 0.938863 0.557147
vt 0.938863 0.549528
vt 0.915682 0.476501
vt 0.919801 0.476501
vt 0.950815 0.557147
vt 0.950815 0.549528
vt 0.938863 0.557547
vt 0.934297 0.557147
vt 0.934297 0.549528
vt 0.911117 0.476501
vt 0.956738 0.468605
vt 0.960857 0.468604
vt 0.923070 0.476501
vt 0.934172 0.557547
vt 0.930179 0.557147
vt 0.930179 0.549528
vt 0.906552 0.476501
vt 0.952173 0.468605
vt 0.964126 0.468604
vt 0.929940 0.557547
vt 0.926910 0.557147
vt 0.926910 0.549528
vt 0.902433 0.476501
vt 0.947608 0.468605
vt 0.899165 0.476501
vt 0.943489 0.468606
vt 0.940221 0.468606
vt 0.910278 0.575097
vt 0.912582 0.579619
vt 0.897155 0.584632
vt 0.913376 0.584632
vt 0.906690 0.571508
vt 0.912583 0.589645
vt 0.902168 0.569204
vt 0.910278 0.594167
vt 0.897155 0.568410
vt 0.906690 0.597755
vt 0.892142 0.569204
vt 0.902168 0.600059
vt 0.887620 0.571508
vt 0.897155 0.600854
vt 0.884031 0.575097
vt 0.892142 0.600059
vt 0.881727 0.579619
vt 0.887620 0.597755
vt 0.880933 0.584632
vt 0.884031 0.594167
vt 0.881727 0.589645
vt 0.943039 0.588563
vt 0.941192 0.592187
vt 0.930675 0.584546
vt 0.938316 0.595063
vt 0.943675 0.584546
vt 0.934693 0.596910
vt 0.943039 0.580529
vt 0.930675 0.597546
vt 0.941192 0.576905
vt 0.926658 0.596910
vt 0.938316 0.574029
vt 0.923034 0.595064
vt 0.934693 0.572182
vt 0.920158 0.592188
vt 0.930675 0.571546
vt 0.918312 0.588563
vt 0.926658 0.572182
vt 0.917675 0.584546
vt 0.923034 0.574029
vt 0.918312 0.580529
vt 0.920158 0.576905
vt 0.943752 0.593420
vt 0.944103 0.593675
vt 0.940515 0.597264
vt 0.940259 0.596913
vt 0.935993 0.599568
vt 0.935858 0.599155
vt 0.939902 0.596421
vt 0.943260 0.593063
vt 0.930980 0.600362
vt 0.930980 0.599928
vt 0.935670 0.598577
vt 0.942932 0.592824
vt 0.939664 0.596093
vt 0.945994 0.589019
vt 0.945416 0.588831
vt 0.925967 0.599568
vt 0.926101 0.599155
vt 0.930980 0.599320
vt 0.935545 0.598191
vt 0.946767 0.584141
vt 0.946159 0.584141
vt 0.921445 0.597264
vt 0.921700 0.596913
vt 0.926289 0.598577
vt 0.930980 0.598915
vt 0.945994 0.579262
vt 0.945416 0.579450
vt 0.917856 0.593675
vt 0.918207 0.593420
vt 0.922058 0.596421
vt 0.926414 0.598191
vt 0.943752 0.574861
vt 0.943260 0.575219
vt 0.918700 0.593063
vt 0.922296 0.596093
vt 0.940259 0.571368
vt 0.939902 0.571861
vt 0.915965 0.589019
vt 0.916544 0.588831
vt 0.919028 0.592824
vt 0.940515 0.571017
vt 0.944103 0.574606
vt 0.939664 0.572189
vt 0.942932 0.575457
vt 0.935858 0.569126
vt 0.935670 0.569704
vt 0.915192 0.584141
vt 0.915801 0.584141
vt 0.935993 0.568713
vt 0.935545 0.570090
vt 0.930980 0.568353
vt 0.930980 0.568962
vt 0.915965 0.579262
vt 0.916544 0.579450
vt 0.930980 0.567919
vt 0.930980 0.569367
vt 0.926101 0.569126
vt 0.926289 0.569705
vt 0.918207 0.574861
vt 0.918700 0.575219
vt 0.925967 0.568713
vt 0.926414 0.570090
vt 0.921700 0.571368
vt 0.922058 0.571861
vt 0.921445 0.571017
vt 0.922296 0.572189
vt 0.917856 0.574606
vt 0.919027 0.575457
vt 0.878715 0.524044
vt 0.883237 0.524044
vt 0.883237 0.548175
vt 0.878715 0.548175
vt 0.888250 0.524044
vt 0.888250 0.548175
vt 0.875551 0.555163
vt 0.922866 0.558345
vt 0.893263 0.524044
vt 0.893263 0.548175
vt 0.875553 0.550150
vt 0.927389 0.565936
vt 0.875555 0.545138
vt 0.932401 0.565936
vt 0.875557 0.540615
vt 0.937414 0.565936
vt 0.928554 0.524044
vt 0.928554 0.548175
vt 0.933567 0.524044
vt 0.933567 0.548175
vt 0.875568 0.509846
vt 0.877550 0.558347
vt 0.938579 0.524044
vt 0.938579 0.548175
vt 0.875570 0.504834
vt 0.882072 0.565937
vt 0.877550 0.565937
vt 0.875571 0.499821
vt 0.887085 0.565937
vt 0.875573 0.495299
vt 0.892097 0.565937
vt 0.968183 0.557147
vt 0.964064 0.557147
vt 0.964064 0.549528
vt 0.968183 0.549527
vt 0.959499 0.557147
vt 0.959499 0.549528
vt 0.936319 0.476501
vt 0.954933 0.557147
vt 0.954933 0.549528
vt 0.931754 0.476501
vt 0.894830 0.468607
vt 0.927188 0.476501
vt 0.890265 0.468607
vt 0.885699 0.468607
vt 0.881581 0.468608
vt 0.922792 0.557147
vt 0.922792 0.549528
vt 0.918226 0.557147
vt 0.918227 0.549528
vt 0.895046 0.476501
vt 0.913661 0.557147
vt 0.913661 0.549527
vt 0.890481 0.476501
vt 0.936102 0.468606
vt 0.885916 0.476501
vt 0.931537 0.468607
vt 0.881797 0.476501
vt 0.926971 0.468607
vt 0.893025 0.549527
vt 0.952390 0.522550
vt 0.956955 0.522550
vt 0.961073 0.522550
vt 0.964342 0.522550
vt 0.940437 0.522550
vt 0.943706 0.522550
vt 0.947825 0.476501
vt 0.910901 0.474304
vt 0.915467 0.474304
vt 0.919585 0.474304
vt 0.922853 0.474304
vt 0.898949 0.474304
vt 0.902217 0.474304
vt 0.829524 0.495282
vt 0.829523 0.499804
vt 0.829521 0.504817
vt 0.829519 0.509830
vt 0.829517 0.514352
vt 0.892097 0.558346
vt 0.887084 0.558347
vt 0.882072 0.558347
vt 0.829508 0.540599
vt 0.829506 0.545121
vt 0.829504 0.550134
vt 0.829503 0.555146
vt 0.829501 0.559669
vt 0.937414 0.558345
vt 0.932401 0.558345
vt 0.927389 0.558345
vt 0.875550 0.559685
vt 0.829516 0.517940
vt 0.829514 0.522462
vt 0.829513 0.527475
vt 0.829511 0.532488
vt 0.829509 0.537010
vt 0.968183 0.558345
vt 0.964595 0.558345
vt 0.960073 0.558345
vt 0.955060 0.558345
vt 0.950047 0.558345
vt 0.945525 0.558345
vt 0.875579 0.477162
vt 0.909743 0.558346
vt 0.904730 0.558346
vt 0.900208 0.558346
vt 0.919278 0.558345
vt 0.961238 0.548175
vt 0.829529 0.482158
vt 0.829527 0.487171
vt 0.829526 0.491693
vt 0.829534 0.469035
vt 0.829533 0.472624
vt 0.940221 0.474303
vt 0.943489 0.474302
vt 0.947608 0.474302
vt 0.952173 0.474302
vt 0.956738 0.474302
vt 0.960857 0.474301
vt 0.964126 0.474301
vt 0.881581 0.474304
vt 0.885699 0.474304
vt 0.890265 0.474304
vt 0.894830 0.474304
vt 0.899165 0.522550
vt 0.902433 0.522550
vt 0.906552 0.522550
vt 0.911117 0.522550
vt 0.915682 0.522550
vt 0.919801 0.522550
vt 0.923070 0.522550
vt 0.927188 0.522550
vt 0.931753 0.522550
vt 0.936319 0.522550
vt 0.881797 0.522550
vt 0.885916 0.522550
vt 0.890481 0.522550
vt 0.895047 0.522550
vt 0.926972 0.474304
vt 0.931537 0.474303
vt 0.936103 0.474303
vn 0.000000 -1.000000 -0.000003
vn 0.000000 -1.000000 -0.000006
vn 0.000000 -1.000000 -0.000001
vn 0.000000 -1.000000 0.000003
vn 0.000000 -1.000000 0.000000
vn 0.000000 -1.000000 0.000000
vn 0.000000 -1.000000 0.000000
vn 0.000000 -1.000000 0.000000
vn 0.000000 -1.000000 -0.000006
vn 0.000000 -1.000000 0.000000
vn 0.000000 -1.000000 -0.000000
vn 0.000000 -1.000000 0.000000
vn 0.000000 -1.000000 0.000003
vn 0.000000 -1.000000 -0.000003
vn 0.000000 -1.000000 0.000000
vn 0.000000 -1.000000 0.000000
vn 0.000000 -1.000000 0.000000
vn 0.000000 -1.000000 0.000000
vn 0.000000 -1.000000 0.000000
vn 0.000000 -1.000000 0.000000
vn 0.000000 -1.000000 0.000000
vn 0.000003 1.000000 0.000000
vn 0.000002 1.000000 -0.000007
vn -0.000000 1.000000 0.000000
vn 0.000002 1.000000 -0.000007
vn 0.000001 1.000000 -0.000004
vn 0.000000 1.000000 -0.000007
vn -0.000001 1.000000 -0.000007
vn -0.000002 1.000000 -0.000004
vn -0.000002 1.000000 0.000000
vn -0.000003 1.000000 0.000000
vn -0.000003 1.000000 0.000000
vn -0.000003 1.000000 0.000007
vn -0.000002 1.000000 0.000007
vn -0.000002 1.000000 0.000004
vn -0.000001 1.000000 0.000007
vn -0.000000 1.000000 0.000007
vn 0.000001 1.000000 0.000004
vn 0.000002 1.000000 0.000000
vn 0.000002 1.000000 0.000000
vn 0.000003 1.000000 0.000000
vn 0.000003 1.000000 0.000000
vn 0.668299 0.711493 -0.217151
vn 0.668302 0.711493 -0.217143
vn 0.702711 0.711475 -0.000000
vn 0.702711 0.711475 0.000000
vn 0.568484 0.711502 -0.413026
vn 0.568485 0.711502 -0.413025
vn 0.413026 0.711518 -0.568465
vn 0.413037 0.711518 -0.568457
vn 0.217153 0.711515 -0.668275
vn 0.217159 0.711515 -0.668273
vn 0.000001 0.711500 -0.702686
vn 0.000001 0.711500 -0.702686
vn -0.217154 0.711514 -0.668276
vn -0.217159 0.711514 -0.668274
vn -0.413021 0.711512 -0.568475
vn -0.413029 0.711512 -0.568470
vn -0.568475 0.711501 -0.413040
vn -0.568476 0.711501 -0.413039
vn -0.668294 0.711498 -0.217149
vn -0.668297 0.711498 -0.217141
vn -0.702696 0.711490 0.000001
vn -0.702696 0.711490 0.000000
vn -0.668298 0.711496 0.217145
vn -0.668301 0.711495 0.217137
vn -0.568481 0.711494 0.413044
vn -0.568482 0.711494 0.413044
vn -0.413021 0.711507 0.568481
vn -0.413023 0.711507 0.568480
vn -0.217146 0.711523 0.668268
vn -0.217150 0.711523 0.668267
vn -0.000001 0.711519 0.702667
vn -0.000001 0.711519 0.702667
vn 0.217145 0.711520 0.668271
vn 0.217154 0.711520 0.668269
vn 0.413027 0.711510 0.568473
vn 0.413032 0.711511 0.568469
vn 0.568495 0.711495 0.413023
vn 0.568495 0.711495 0.413022
vn 0.668313 0.711482 0.217142
vn 0.668317 0.711482 0.217131
vn 0.951055 0.000000 -0.309021
vn 0.809017 0.000000 -0.587785
vn 0.809017 0.000000 -0.587785
vn 0.951055 -0.000000 -0.309022
vn 0.587795 0.000000 -0.809010
vn 0.587797 0.000000 -0.809009
vn 0.309020 0.000000 -0.951056
vn 0.309021 0.000000 -0.951055
vn 0.000000 0.000000 -1.000000
vn 0.000000 0.000000 -1.000000
vn -0.309020 0.000000 -0.951056
vn -0.309021 0.000000 -0.951055
vn -0.587796 0.000000 -0.809009
vn -0.587798 0.000000 -0.809008
vn -0.809016 0.000000 -0.587786
vn -0.809016 0.000000 -0.587786
vn -0.951056 0.000000 -0.309020
vn -0.951055 0.000000 -0.309021
vn -1.000000 0.000000 0.000000
vn -1.000000 0.000000 -0.000000
vn -0.951057 0.000000 0.309015
vn -0.951057 0.000000 0.309015
vn -0.809015 0.000000 0.587788
vn -0.809014 0.000000 0.587790
vn -0.587787 -0.000001 0.809016
vn -0.587791 -0.000000 0.809013
vn -0.309024 -0.000002 0.951054
vn -0.309025 -0.000001 0.951054
vn 0.000000 -0.000002 1.000000
vn -0.000000 -0.000001 1.000000
vn 0.309023 -0.000002 0.951054
vn 0.309024 -0.000001 0.951054
vn 0.587787 -0.000001 0.809016
vn 0.587790 -0.000000 0.809013
vn 0.809017 0.000000 0.587786
vn 0.809016 0.000000 0.587787
vn 0.951057 0.000000 0.309016
vn 0.951057 0.000000 0.309016
vn 1.000000 0.000000 0.000002
vn 1.000000 0.000000 0.000002
vn -0.668290 0.711505 0.217139
vn -0.668283 0.711505 0.217162
vn -0.568483 0.711503 0.413027
vn -0.568488 0.711503 0.413019
vn -0.702687 0.711499 0.000000
vn -0.702687 0.711499 -0.000000
vn -0.413044 0.711477 0.568503
vn -0.413039 0.711477 0.568506
vn -0.217142 0.711486 0.668309
vn -0.217141 0.711486 0.668309
vn 0.000000 0.711521 0.702665
vn 0.000000 0.711521 0.702665
vn 0.217144 0.711501 0.668292
vn 0.217143 0.711501 0.668293
vn 0.413039 0.711486 0.568495
vn 0.413034 0.711486 0.568499
vn 0.568480 0.711509 0.413021
vn 0.568482 0.711509 0.413018
vn 0.668286 0.711508 0.217140
vn 0.668294 0.711508 0.217117
vn 0.702693 0.711493 -0.000000
vn 0.702693 0.711493 0.000000
vn 0.668327 0.711472 -0.217132
vn 0.668319 0.711472 -0.217156
vn 0.568501 0.711472 -0.413055
vn 0.568503 0.711472 -0.413052
vn 0.413039 0.711469 -0.568516
vn 0.413039 0.711469 -0.568516
vn 0.217174 0.711447 -0.668340
vn 0.217174 0.711447 -0.668340
vn 0.000010 0.711428 -0.702759
vn 0.000012 0.711428 -0.702759
vn -0.217170 0.711440 -0.668349
vn -0.217170 0.711440 -0.668349
vn -0.413045 0.711474 -0.568506
vn -0.413040 0.711474 -0.568509
vn -0.568497 0.711484 -0.413040
vn -0.568499 0.711484 -0.413037
vn -0.668314 0.711482 -0.217140
vn -0.668306 0.711482 -0.217165
vn -0.951056 0.000001 0.309018
vn -0.809021 0.000000 0.587779
vn -0.809024 0.000000 0.587775
vn -0.951058 0.000001 0.309012
vn -0.587796 0.000000 0.809009
vn -0.587795 0.000000 0.809010
vn -0.309018 0.000000 0.951056
vn -0.309018 0.000000 0.951056
vn 0.000000 -0.000001 1.000000
vn -0.000008 -0.000001 1.000000
vn 0.309016 -0.000004 0.951057
vn 0.309002 -0.000003 0.951061
vn 0.587798 -0.000004 0.809008
vn 0.587795 -0.000004 0.809010
vn 0.809026 -0.000000 0.587773
vn 0.809038 -0.000002 0.587757
vn 0.951054 0.000001 0.309024
vn 0.951055 0.000001 0.309022
vn 1.000000 0.000000 0.000000
vn 1.000000 0.000000 -0.000000
vn 0.951056 0.000001 -0.309017
vn 0.951057 0.000001 -0.309017
vn 0.809017 0.000001 -0.587786
vn 0.809022 0.000001 -0.587778
vn 0.587784 0.000000 -0.809018
vn 0.587785 0.000000 -0.809017
vn 0.309035 0.000000 -0.951051
vn 0.309037 0.000000 -0.951050
vn 0.000021 0.000001 -1.000000
vn 0.000019 0.000000 -1.000000
vn -0.309037 0.000003 -0.951050
vn -0.309038 0.000000 -0.951050
vn -0.587798 0.000001 -0.809008
vn -0.587797 -0.000000 -0.809008
vn -0.809012 -0.000002 -0.587793
vn -0.809007 -0.000001 -0.587800
vn -0.951056 -0.000003 -0.309018
vn -0.951054 -0.000002 -0.309025
vn -1.000000 -0.000001 0.000001
vn -1.000000 -0.000000 0.000000
vn 0.000000 1.000000 -0.000008
vn 0.000000 1.000000 -0.000013
vn 0.000000 1.000000 -0.000013
vn 0.000000 1.000000 -0.000008
vn 0.000000 1.000000 -0.000011
vn 0.000000 1.000000 -0.000011
vn 0.000000 1.000000 -0.000025
vn 0.000000 1.000000 -0.000025
vn 0.000000 1.000000 -0.000041
vn 0.000000 1.000000 -0.000041
vn 0.000000 1.000000 -0.000041
vn 0.000000 1.000000 -0.000041
vn 0.000000 1.000000 -0.000009
vn 0.000000 1.000000 -0.000009
vn 0.000000 1.000000 0.000016
vn 0.000000 1.000000 0.000016
vn 0.000000 1.000000 -0.000000
vn 0.000000 1.000000 0.000000
vn 0.000000 1.000000 0.000000
vn 0.000000 1.000000 -0.000000
vn 0.000000 1.000000 0.000005
vn 0.000000 1.000000 0.000005
vn 0.000000 1.000000 -0.000016
vn 0.000000 1.000000 -0.000016
vn 0.000000 1.000000 -0.000018
vn 0.000000 1.000000 -0.000018
vn 0.000000 1.000000 0.000012
vn 0.000000 1.000000 0.000012
vn 0.000000 1.000000 0.000035
vn 0.000000 1.000000 0.000035
vn 0.000000 1.000000 0.000022
vn 0.000000 1.000000 0.000022
vn 0.000000 1.000000 -0.000004
vn 0.000000 1.000000 -0.000004
vn 0.000000 1.000000 0.000000
vn 0.000000 1.000000 -0.000000
vn 0.000000 1.000000 0.000008
vn 0.000000 1.000000 0.000008
vn 0.000000 1.000000 0.000003
vn 0.000000 1.000000 0.000003
vn 0.951055 -0.000000 -0.309022
vn 0.809017 0.000000 -0.587785
vn 0.809017 0.000000 -0.587786
vn 0.951055 0.000000 -0.309022
vn 0.587798 0.000000 -0.809008
vn 0.587799 0.000000 -0.809007
vn 0.309021 -0.000000 -0.951055
vn 0.309017 0.000000 -0.951057
vn -0.000000 -0.000000 -1.000000
vn 0.000000 0.000000 -1.000000
vn -0.309021 0.000000 -0.951055
vn -0.309018 0.000000 -0.951056
vn -0.587799 0.000000 -0.809007
vn -0.587800 0.000000 -0.809006
vn -0.809016 0.000000 -0.587786
vn -0.809017 0.000000 -0.587786
vn -0.951055 0.000000 -0.309021
vn -0.951055 0.000000 -0.309021
vn -1.000000 0.000000 -0.000000
vn -1.000000 0.000000 0.000000
vn -0.951057 0.000000 0.309015
vn -0.951057 0.000000 0.309015
vn -0.809014 0.000000 0.587790
vn -0.809015 0.000000 0.587789
vn -0.587792 0.000000 0.809012
vn -0.587786 0.000002 0.809016
vn -0.309025 0.000001 0.951054
vn -0.309023 0.000005 0.951055
vn -0.000000 0.000001 1.000000
vn 0.000000 0.000006 1.000000
vn 0.309025 0.000001 0.951054
vn 0.309023 0.000005 0.951055
vn 0.587791 0.000000 0.809013
vn 0.587786 0.000003 0.809016
vn 0.809016 0.000000 0.587787
vn 0.809016 0.000000 0.587786
vn 0.951057 0.000000 0.309016
vn 0.951057 0.000000 0.309017
vn 1.000000 -0.000000 0.000002
vn 1.000000 0.000000 0.000003
vn -0.809025 0.000000 0.587775
vn -0.951059 0.000000 0.309010
vn -0.587795 0.000000 0.809010
vn -0.309018 0.000000 0.951056
vn -0.000010 -0.000001 1.000000
vn 0.308997 -0.000003 0.951063
vn 0.587793 -0.000005 0.809011
vn 0.809041 -0.000003 0.587752
vn 0.951056 0.000000 0.309019
vn 1.000000 0.000001 -0.000000
vn 0.951057 0.000001 -0.309016
vn 0.809024 0.000001 -0.587776
vn 0.587785 0.000000 -0.809017
vn 0.309037 0.000000 -0.951050
vn 0.000019 -0.000000 -1.000000
vn -0.309038 -0.000000 -0.951050
vn -0.587798 -0.000000 -0.809008
vn -0.809005 -0.000001 -0.587802
vn -0.951053 -0.000001 -0.309028
vn -1.000000 -0.000000 -0.000001
vn -0.809024 -0.000002 0.587776
vn -0.951060 -0.000003 0.309006
vn -0.587794 0.000000 0.809011
vn -0.309019 0.000000 0.951056
vn -0.000019 -0.000002 1.000000
vn 0.308979 -0.000007 0.951069
vn 0.587783 -0.000010 0.809018
vn 0.809055 -0.000007 0.587733
vn 0.951058 -0.000002 0.309012
vn 1.000000 0.000001 -0.000000
vn 0.951057 0.000002 -0.309015
vn 0.809031 0.000001 -0.587767
vn 0.587786 0.000000 -0.809017
vn 0.309035 0.000000 -0.951051
vn 0.000019 0.000000 -1.000000
vn -0.309036 0.000000 -0.951050
vn -0.587799 0.000000 -0.809007
vn -0.808999 0.000000 -0.587811
vn -0.951052 0.000000 -0.309030
vn -1.000000 -0.000001 0.000000
s 1
g Thunder_Fragment1 Desk_Props
usemtl aiStandardSurface3SG
f 2/133/1 1/134/2 21/135/3
f 3/137/4 2/133/1 21/135/3
f 4/139/5 3/137/4 21/135/3
f 5/141/6 4/139/5 21/135/3
f 6/143/7 5/141/6 21/135/3
f 7/145/8 6/143/7 21/135/3
f 8/147/9 7/145/8 21/135/3
f 9/149/10 8/147/9 21/135/3
f 10/151/11 9/149/10 21/135/3
f 11/153/12 10/151/11 21/135/3
f 12/152/13 11/153/12 21/135/3
f 13/150/14 12/152/13 21/135/3
f 14/148/15 13/150/14 21/135/3
f 15/146/16 14/148/15 21/135/3
f 16/144/17 15/146/16 21/135/3
f 17/142/18 16/144/17 21/135/3
f 18/140/19 17/142/18 21/135/3
f 19/138/20 18/140/19 21/135/3
f 20/136/21 19/138/20 21/135/3
f 1/134/2 20/136/21 21/135/3
s 2
f 22/154/22 23/155/23 24/156/24
f 23/155/23 25/157/25 24/156/24
f 25/157/25 26/159/26 24/156/24
f 26/159/26 27/161/27 24/156/24
f 27/161/27 28/163/28 24/156/24
f 28/163/28 29/165/29 24/156/24
f 29/165/29 30/167/30 24/156/24
f 30/167/30 31/169/31 24/156/24
f 31/169/31 32/171/32 24/156/24
f 32/171/32 33/173/33 24/156/24
f 33/173/33 34/174/34 24/156/24
f 34/174/34 35/172/35 24/156/24
f 35/172/35 36/170/36 24/156/24
f 36/170/36 37/168/37 24/156/24
f 37/168/37 38/166/38 24/156/24
f 38/166/38 39/164/39 24/156/24
f 39/164/39 40/162/40 24/156/24
f 40/162/40 41/160/41 24/156/24
f 41/160/41 42/158/42 24/156/24
f 42/158/42 22/154/22 24/156/24
s 3
f 43/13/43 44/18/44 82/24/45 81/20/46
f 44/18/44 43/13/43 45/12/47 46/19/48
f 46/175/48 45/176/47 47/177/49 48/178/50
f 48/178/50 47/177/49 49/179/51 50/180/52
f 50/180/52 49/179/51 51/183/53 52/184/54
f 52/184/54 51/183/53 53/190/55 54/191/56
f 54/191/56 53/190/55 55/196/57 56/197/58
f 56/197/58 55/196/57 57/202/59 58/203/60
f 58/54/60 57/48/59 59/47/61 60/55/62
f 60/55/62 59/47/61 61/53/63 62/61/64
f 62/61/64 61/53/63 63/60/65 64/64/66
f 64/64/66 63/60/65 65/63/67 66/66/68
f 66/233/68 65/241/67 67/239/69 68/237/70
f 68/237/70 67/239/69 69/235/71 70/231/72
f 70/231/72 69/235/71 71/229/73 72/225/74
f 72/225/74 71/229/73 73/223/75 74/219/76
f 74/219/76 73/223/75 75/215/77 76/210/78
f 76/210/78 75/215/77 77/216/79 78/206/80
f 78/32/80 77/30/79 79/25/81 80/29/82
f 80/29/82 79/25/81 81/20/46 82/24/45
s 4
f 1/1/83 2/2/84 163/3/85 183/349/86
f 2/2/84 3/5/87 164/6/88 163/3/85
f 3/243/87 4/244/89 165/245/90 164/246/88
f 4/244/89 5/247/91 166/248/92 165/245/90
f 5/247/91 6/251/93 167/252/94 166/248/92
f 6/251/93 7/42/95 168/43/96 167/252/94
f 7/42/95 8/34/97 169/37/98 168/43/96
f 8/34/97 9/35/99 170/36/100 169/37/98
f 9/35/99 10/38/101 171/39/102 170/36/100
f 10/38/101 11/44/103 172/45/104 171/39/102
f 11/44/103 12/50/105 173/51/106 172/45/104
f 12/50/105 13/57/107 174/58/108 173/51/106
f 13/57/107 14/259/109 175/260/110 174/58/108
f 14/259/109 15/261/111 176/262/112 175/260/110
f 15/261/111 16/265/113 177/266/114 176/262/112
f 16/265/113 17/27/115 178/28/116 177/266/114
f 17/27/115 18/22/117 179/23/118 178/28/116
f 18/22/117 19/15/119 180/16/120 179/23/118
f 19/15/119 20/9/121 181/10/122 180/16/120
f 20/9/121 1/1/83 183/349/86 181/10/122
s 5
f 83/67/123 84/71/124 86/72/125 85/68/126
f 84/71/124 83/67/123 121/77/127 122/79/128
f 85/186/126 86/182/125 88/181/129 87/187/130
f 87/187/130 88/181/129 90/185/131 89/193/132
f 89/193/132 90/185/131 92/192/133 91/199/134
f 91/199/134 92/192/133 94/198/135 93/205/136
f 93/205/136 94/198/135 96/204/137 95/209/138
f 95/209/138 96/204/137 98/208/139 97/214/140
f 97/100/140 98/104/139 100/105/141 99/101/142
f 99/101/142 100/105/141 102/112/143 101/106/144
f 101/106/144 102/112/143 104/119/145 103/113/146
f 103/113/146 104/119/145 106/125/147 105/120/148
f 105/242/148 106/234/147 108/238/149 107/240/150
f 107/240/150 108/238/149 110/232/151 109/236/152
f 109/236/152 110/232/151 112/226/153 111/230/154
f 111/230/154 112/226/153 114/220/155 113/224/156
f 113/224/156 114/220/155 116/211/157 115/217/158
f 115/217/158 116/211/157 118/207/159 117/218/160
f 117/90/160 118/92/159 120/86/161 119/84/162
f 119/84/162 120/86/161 122/79/128 121/77/127
s 6
f 83/67/163 85/68/164 143/69/165 144/302/166
f 85/68/164 87/73/167 145/74/168 143/69/165
f 87/274/167 89/275/169 146/276/170 145/277/168
f 89/275/169 91/278/171 147/279/172 146/276/170
f 91/278/171 93/281/173 148/282/174 147/279/172
f 93/281/173 95/110/175 149/111/176 148/282/174
f 95/110/175 97/100/177 150/103/178 149/111/176
f 97/100/177 99/101/179 151/102/180 150/103/178
f 99/101/179 101/106/181 152/107/182 151/102/180
f 101/106/181 103/113/183 153/114/184 152/107/182
f 103/113/183 105/120/185 154/121/186 153/114/184
f 105/120/185 107/126/187 155/127/188 154/121/186
f 107/126/187 109/289/189 156/290/190 155/127/188
f 109/289/189 111/291/191 157/292/192 156/290/190
f 111/291/191 113/294/193 158/295/194 157/292/192
f 113/294/193 115/95/195 159/96/196 158/295/194
f 115/95/195 117/90/197 160/91/198 159/96/196
f 117/90/197 119/84/199 161/85/200 160/91/198
f 119/84/199 121/77/201 162/78/202 161/85/200
f 121/77/201 83/67/163 144/302/166 162/78/202
s 7
f 44/188/203 46/175/204 86/182/205 84/189/206
f 46/175/204 48/178/207 88/181/208 86/182/205
f 48/178/207 50/180/209 90/185/210 88/181/208
f 50/180/209 52/184/211 92/192/212 90/185/210
f 52/184/211 54/191/213 94/198/214 92/192/212
f 54/191/213 56/197/215 96/204/216 94/198/214
f 56/197/215 58/203/217 98/208/218 96/204/216
f 58/203/217 60/212/219 100/213/220 98/208/218
f 60/212/219 62/221/221 102/222/222 100/213/220
f 62/221/221 64/227/223 104/228/224 102/222/222
f 64/227/223 66/233/225 106/234/226 104/228/224
f 66/233/225 68/237/227 108/238/228 106/234/226
f 68/237/227 70/231/229 110/232/230 108/238/228
f 70/231/229 72/225/231 112/226/232 110/232/230
f 72/225/231 74/219/233 114/220/234 112/226/232
f 74/219/233 76/210/235 116/211/236 114/220/234
f 76/210/235 78/206/237 118/207/238 116/211/236
f 78/206/237 80/200/239 120/201/240 118/207/238
f 80/200/239 82/194/241 122/195/242 120/201/240
f 82/194/241 44/188/203 84/189/206 122/195/242
s 4
f 124/8/243 123/348/244 45/12/245 43/13/246
f 123/348/244 125/250/247 47/17/248 45/12/245
f 125/250/247 126/331/249 49/254/250 47/17/248
f 126/331/249 127/330/251 51/256/252 49/254/250
f 127/330/251 128/329/253 53/258/254 51/256/252
f 128/329/253 129/49/255 55/56/256 53/258/254
f 129/49/255 130/343/257 57/48/258 55/56/256
f 130/343/257 131/342/259 59/47/260 57/48/258
f 131/342/259 132/341/261 61/53/262 59/47/260
f 132/341/261 133/340/263 63/60/264 61/53/262
f 133/340/263 134/339/265 65/63/266 63/60/264
f 134/339/265 135/338/267 67/65/268 65/63/266
f 135/264/267 136/323/269 69/268/270 67/269/268
f 136/323/269 137/322/271 71/271/272 69/268/270
f 137/322/271 138/321/273 73/273/274 71/271/272
f 138/321/273 139/31/275 75/33/276 73/273/274
f 139/31/275 140/347/277 77/30/278 75/33/276
f 140/347/277 141/346/279 79/25/280 77/30/278
f 141/346/279 142/345/281 81/20/282 79/25/280
f 142/345/281 124/8/243 43/13/246 81/20/282
s 6
f 144/70/166 143/308/165 184/75/283 182/309/284
f 143/308/165 145/307/168 185/80/285 184/75/283
f 145/307/168 146/375/170 186/280/286 185/80/285
f 146/375/170 147/374/172 187/283/287 186/280/286
f 147/374/172 148/373/174 188/285/288 187/283/287
f 148/373/174 149/372/176 189/118/289 188/285/288
f 149/372/176 150/371/178 190/109/290 189/118/289
f 150/371/178 151/370/180 191/108/291 190/109/290
f 151/370/180 152/369/182 192/115/292 191/108/291
f 152/369/182 153/368/184 193/122/293 192/115/292
f 153/368/184 154/367/186 194/128/294 193/122/293
f 154/367/186 155/366/188 195/130/295 194/128/294
f 155/366/188 156/379/190 196/293/296 195/130/295
f 156/379/190 157/378/192 197/296/297 196/293/296
f 157/378/192 158/377/194 198/298/298 197/296/297
f 158/377/194 159/376/196 199/300/299 198/298/298
f 159/306/196 160/305/198 200/94/300 199/98/299
f 160/305/198 161/304/200 201/89/301 200/94/300
f 161/304/200 162/303/202 202/83/302 201/89/301
f 162/303/202 144/70/166 182/309/284 202/83/302
s 4
f 183/4/86 163/354/85 123/7/244 124/344/243
f 163/354/85 164/353/88 125/11/247 123/7/244
f 164/328/88 165/327/90 126/249/249 125/332/247
f 165/327/90 166/326/92 127/253/251 126/249/249
f 166/326/92 167/325/94 128/255/253 127/253/251
f 167/325/94 168/324/96 129/257/255 128/255/253
f 168/324/96 169/337/98 130/41/257 129/257/255
f 169/337/98 170/336/100 131/40/259 130/41/257
f 170/336/100 171/335/102 132/46/261 131/40/259
f 171/335/102 172/334/104 133/52/263 132/46/261
f 172/334/104 173/333/106 134/59/265 133/52/263
f 173/333/106 174/320/108 135/62/267 134/59/265
f 174/320/108 175/319/110 136/263/269 135/62/267
f 175/319/110 176/318/112 137/267/271 136/263/269
f 176/318/112 177/317/114 138/270/273 137/267/271
f 177/317/114 178/316/116 139/272/275 138/270/273
f 178/316/116 179/352/118 140/26/277 139/272/275
f 179/352/118 180/351/120 141/21/279 140/26/277
f 180/351/120 181/350/122 142/14/281 141/21/279
f 181/350/122 183/4/86 124/344/243 142/14/281
s 6
f 182/76/284 184/315/283 23/81/303 22/82/304
f 184/315/283 185/314/285 25/87/305 23/81/303
f 185/314/285 186/365/286 26/284/306 25/87/305
f 186/365/286 187/364/287 27/286/307 26/284/306
f 187/364/287 188/363/288 28/287/308 27/286/307
f 188/363/288 189/362/289 29/288/309 28/287/308
f 189/361/289 190/360/290 30/117/310 29/124/309
f 190/360/290 191/359/291 31/116/311 30/117/310
f 191/359/291 192/358/292 32/123/312 31/116/311
f 192/358/292 193/357/293 33/129/313 32/123/312
f 193/357/293 194/356/294 34/131/314 33/129/313
f 194/356/294 195/355/295 35/132/315 34/131/314
f 195/355/295 196/382/296 36/297/316 35/132/315
f 196/382/296 197/381/297 37/299/317 36/297/316
f 197/381/297 198/380/298 38/301/318 37/299/317
f 198/380/298 199/313/299 39/99/319 38/301/318
f 199/313/299 200/312/300 40/97/320 39/99/319
f 200/312/300 201/311/301 41/93/321 40/97/320
f 201/311/301 202/310/302 42/88/322 41/93/321
f 202/310/302 182/76/284 22/82/304 42/88/322
